Arena_John/Lab 2/Quartus Files/Arena_16x4_SRAM/simulation/qsim/Arena_16x4_SRAM.msim.vcd
$comment
	File created using the following command:
		vcd file Arena_16x4_SRAM.msim.vcd -direction
$end
$date
	Mon Mar 11 13:24:46 2019
$end
$version
	ModelSim Version 10.1d
$end
$timescale
	1ps
$end
$scope module Arena_16x4_SRAM_with_Decoder_vlg_vec_tst $end
$var reg 4 ! Arena_Address [3:0] $end
$var reg 1 " Arena_CS $end
$var reg 4 # Arena_DataIn [3:0] $end
$var reg 1 $ Arena_OE $end
$var reg 1 % Arena_WE $end
$var wire 1 & Arena_segment_A $end
$var wire 1 ' Arena_segment_B $end
$var wire 1 ( Arena_segment_C $end
$var wire 1 ) Arena_segment_D $end
$var wire 1 * Arena_segment_E $end
$var wire 1 + Arena_segment_F $end
$var wire 1 , Arena_segment_G $end
$var wire 1 - sampler $end
$scope module i1 $end
$var wire 1 . gnd $end
$var wire 1 / vcc $end
$var wire 1 0 unknown $end
$var tri1 1 1 devclrn $end
$var tri1 1 2 devpor $end
$var tri1 1 3 devoe $end
$var wire 1 4 inst|inst11|inst2|inst~3_combout $end
$var wire 1 5 inst|inst11|inst2|inst~8_combout $end
$var wire 1 6 inst|inst12|inst2|inst~0_combout $end
$var wire 1 7 inst|inst12|inst2|inst~1_combout $end
$var wire 1 8 inst|inst12|inst2|inst~2_combout $end
$var wire 1 9 inst|inst12|inst2|inst~3_combout $end
$var wire 1 : inst|inst12|inst2|inst~4_combout $end
$var wire 1 ; inst|inst12|inst2|inst~6_combout $end
$var wire 1 < inst|inst13|inst2|inst~2_combout $end
$var wire 1 = inst|inst13|inst2|inst~7_combout $end
$var wire 1 > inst|inst14|inst2|inst~3_combout $end
$var wire 1 ? inst|inst14|inst2|inst~5_combout $end
$var wire 1 @ inst|inst14|inst2|inst~6_combout $end
$var wire 1 A inst|inst14|inst2|inst~7_combout $end
$var wire 1 B inst|inst14|inst2|inst~8_combout $end
$var wire 1 C inst|inst14|inst2|inst~9_combout $end
$var wire 1 D inst|inst14|inst27|DLatch1|inst1~1_combout $end
$var wire 1 E inst|inst11|inst27|DLatch1|inst1~1_combout $end
$var wire 1 F inst|inst11|inst28|DLatch1|inst1~1_combout $end
$var wire 1 G inst|inst11|inst29|DLatch1|inst1~1_combout $end
$var wire 1 H inst|inst11|inst35|DLatch1|inst1~1_combout $end
$var wire 1 I inst|inst11|inst|DLatch1|inst1~1_combout $end
$var wire 1 J inst|inst12|inst2|DLatch1|inst1~1_combout $end
$var wire 1 K inst|inst12|inst22|DLatch1|inst1~1_combout $end
$var wire 1 L inst|inst12|inst23|DLatch1|inst1~1_combout $end
$var wire 1 M inst|inst12|inst24|DLatch1|inst1~1_combout $end
$var wire 1 N inst|inst12|inst25|DLatch1|inst1~1_combout $end
$var wire 1 O inst|inst12|inst26|DLatch1|inst1~1_combout $end
$var wire 1 P inst|inst12|inst27|DLatch1|inst1~1_combout $end
$var wire 1 Q inst|inst12|inst28|DLatch1|inst1~1_combout $end
$var wire 1 R inst|inst12|inst31|DLatch1|inst1~1_combout $end
$var wire 1 S inst|inst12|inst32|DLatch1|inst1~1_combout $end
$var wire 1 T inst|inst13|inst25|DLatch1|inst1~1_combout $end
$var wire 1 U inst|inst13|inst26|DLatch1|inst1~1_combout $end
$var wire 1 V inst|inst13|inst27|DLatch1|inst1~1_combout $end
$var wire 1 W inst|inst13|inst30|DLatch1|inst1~1_combout $end
$var wire 1 X inst|inst13|inst33|DLatch1|inst1~1_combout $end
$var wire 1 Y inst|inst13|inst34|DLatch1|inst1~1_combout $end
$var wire 1 Z inst|inst14|inst22|DLatch1|inst1~2_combout $end
$var wire 1 [ inst|inst14|inst27|DLatch1|inst1~2_combout $end
$var wire 1 \ inst|inst14|inst28|DLatch1|inst1~2_combout $end
$var wire 1 ] inst|inst14|inst29|DLatch1|inst1~2_combout $end
$var wire 1 ^ inst|inst14|inst30|DLatch1|inst1~2_combout $end
$var wire 1 _ inst|inst14|inst31|DLatch1|inst1~2_combout $end
$var wire 1 ` inst|inst14|inst32|DLatch1|inst1~2_combout $end
$var wire 1 a inst|inst14|inst33|DLatch1|inst1~2_combout $end
$var wire 1 b inst|inst14|inst34|DLatch1|inst1~2_combout $end
$var wire 1 c inst|inst14|inst35|DLatch1|inst1~2_combout $end
$var wire 1 d inst|inst14|inst|DLatch1|inst1~2_combout $end
$var wire 1 e inst|inst11|inst27|DLatch0|inst1~1_combout $end
$var wire 1 f inst|inst11|inst28|DLatch0|inst1~1_combout $end
$var wire 1 g inst|inst11|inst29|DLatch0|inst1~1_combout $end
$var wire 1 h inst|inst11|inst35|DLatch0|inst1~1_combout $end
$var wire 1 i inst|inst11|inst|DLatch0|inst1~1_combout $end
$var wire 1 j inst|inst12|inst2|DLatch0|inst1~1_combout $end
$var wire 1 k inst|inst12|inst22|DLatch0|inst1~1_combout $end
$var wire 1 l inst|inst12|inst23|DLatch0|inst1~1_combout $end
$var wire 1 m inst|inst12|inst24|DLatch0|inst1~1_combout $end
$var wire 1 n inst|inst12|inst25|DLatch0|inst1~1_combout $end
$var wire 1 o inst|inst12|inst26|DLatch0|inst1~1_combout $end
$var wire 1 p inst|inst12|inst27|DLatch0|inst1~1_combout $end
$var wire 1 q inst|inst12|inst28|DLatch0|inst1~1_combout $end
$var wire 1 r inst|inst12|inst31|DLatch0|inst1~1_combout $end
$var wire 1 s inst|inst12|inst32|DLatch0|inst1~1_combout $end
$var wire 1 t inst|inst13|inst25|DLatch0|inst1~1_combout $end
$var wire 1 u inst|inst13|inst26|DLatch0|inst1~1_combout $end
$var wire 1 v inst|inst13|inst27|DLatch0|inst1~1_combout $end
$var wire 1 w inst|inst13|inst30|DLatch0|inst1~1_combout $end
$var wire 1 x inst|inst13|inst33|DLatch0|inst1~1_combout $end
$var wire 1 y inst|inst13|inst34|DLatch0|inst1~1_combout $end
$var wire 1 z inst|inst14|inst22|DLatch0|inst1~1_combout $end
$var wire 1 { inst|inst14|inst27|DLatch0|inst1~1_combout $end
$var wire 1 | inst|inst14|inst28|DLatch0|inst1~1_combout $end
$var wire 1 } inst|inst14|inst29|DLatch0|inst1~1_combout $end
$var wire 1 ~ inst|inst14|inst30|DLatch0|inst1~1_combout $end
$var wire 1 !! inst|inst14|inst31|DLatch0|inst1~1_combout $end
$var wire 1 "! inst|inst14|inst32|DLatch0|inst1~1_combout $end
$var wire 1 #! inst|inst14|inst33|DLatch0|inst1~1_combout $end
$var wire 1 $! inst|inst14|inst34|DLatch0|inst1~1_combout $end
$var wire 1 %! inst|inst14|inst35|DLatch0|inst1~1_combout $end
$var wire 1 &! inst|inst14|inst|DLatch0|inst1~1_combout $end
$var wire 1 '! inst|inst14|inst27|DLatch1|inst1~1clkctrl_outclk $end
$var wire 1 (! Arena_CS~combout $end
$var wire 1 )! Arena_OE~combout $end
$var wire 1 *! inst|inst10|Mux15~1_combout $end
$var wire 1 +! inst|inst10|Mux15~0_combout $end
$var wire 1 ,! Arena_WE~combout $end
$var wire 1 -! inst|inst14|inst2|DLatch1|inst1~1_combout $end
$var wire 1 .! inst|inst14|inst2|DLatch1|inst1~1clkctrl_outclk $end
$var wire 1 /! inst|inst14|inst2|DLatch0|inst1~1_combout $end
$var wire 1 0! inst|inst14|inst2|DLatch1|inst1~2_combout $end
$var wire 1 1! inst|inst14|inst2|inst~0_combout $end
$var wire 1 2! inst|inst10|Mux15~5_combout $end
$var wire 1 3! inst|inst10|Mux15~4_combout $end
$var wire 1 4! inst|inst14|inst25|DLatch1|inst1~1_combout $end
$var wire 1 5! inst|inst14|inst25|DLatch1|inst1~1clkctrl_outclk $end
$var wire 1 6! inst|inst14|inst25|DLatch0|inst1~1_combout $end
$var wire 1 7! inst|inst14|inst25|DLatch1|inst1~2_combout $end
$var wire 1 8! inst|inst14|inst26|DLatch1|inst1~1_combout $end
$var wire 1 9! inst|inst14|inst26|DLatch1|inst1~1clkctrl_outclk $end
$var wire 1 :! inst|inst14|inst26|DLatch0|inst1~1_combout $end
$var wire 1 ;! inst|inst14|inst26|DLatch1|inst1~2_combout $end
$var wire 1 <! inst|inst14|inst2|inst~2_combout $end
$var wire 1 =! inst|inst10|Mux15~2_combout $end
$var wire 1 >! inst|inst14|inst23|DLatch1|inst1~1_combout $end
$var wire 1 ?! inst|inst14|inst23|DLatch1|inst1~1clkctrl_outclk $end
$var wire 1 @! inst|inst14|inst23|DLatch0|inst1~1_combout $end
$var wire 1 A! inst|inst14|inst23|DLatch1|inst1~2_combout $end
$var wire 1 B! inst|inst10|Mux15~3_combout $end
$var wire 1 C! inst|inst14|inst24|DLatch1|inst1~1_combout $end
$var wire 1 D! inst|inst14|inst24|DLatch1|inst1~1clkctrl_outclk $end
$var wire 1 E! inst|inst14|inst24|DLatch0|inst1~1_combout $end
$var wire 1 F! inst|inst14|inst24|DLatch1|inst1~2_combout $end
$var wire 1 G! inst|inst14|inst2|inst~1_combout $end
$var wire 1 H! inst|inst14|inst2|inst~4_combout $end
$var wire 1 I! inst|inst7~2_combout $end
$var wire 1 J! inst|inst10|Mux15~11_combout $end
$var wire 1 K! inst|inst10|Mux15~10_combout $end
$var wire 1 L! inst|inst14|inst31|DLatch1|inst1~1_combout $end
$var wire 1 M! inst|inst14|inst31|DLatch1|inst1~1clkctrl_outclk $end
$var wire 1 N! inst|inst11|inst31|DLatch0|inst1~1_combout $end
$var wire 1 O! inst|inst11|inst31|DLatch1|inst1~1_combout $end
$var wire 1 P! inst|inst14|inst32|DLatch1|inst1~1_combout $end
$var wire 1 Q! inst|inst14|inst32|DLatch1|inst1~1clkctrl_outclk $end
$var wire 1 R! inst|inst11|inst32|DLatch0|inst1~1_combout $end
$var wire 1 S! inst|inst11|inst32|DLatch1|inst1~1_combout $end
$var wire 1 T! inst|inst11|inst2|inst~6_combout $end
$var wire 1 U! inst|inst10|Mux15~13_combout $end
$var wire 1 V! inst|inst14|inst34|DLatch1|inst1~1_combout $end
$var wire 1 W! inst|inst14|inst34|DLatch1|inst1~1clkctrl_outclk $end
$var wire 1 X! inst|inst11|inst34|DLatch0|inst1~1_combout $end
$var wire 1 Y! inst|inst11|inst34|DLatch1|inst1~1_combout $end
$var wire 1 Z! inst|inst10|Mux15~12_combout $end
$var wire 1 [! inst|inst14|inst33|DLatch1|inst1~1_combout $end
$var wire 1 \! inst|inst14|inst33|DLatch1|inst1~1clkctrl_outclk $end
$var wire 1 ]! inst|inst11|inst33|DLatch0|inst1~1_combout $end
$var wire 1 ^! inst|inst11|inst33|DLatch1|inst1~1_combout $end
$var wire 1 _! inst|inst11|inst2|inst~7_combout $end
$var wire 1 `! inst|inst10|Mux15~9_combout $end
$var wire 1 a! inst|inst14|inst30|DLatch1|inst1~1_combout $end
$var wire 1 b! inst|inst14|inst30|DLatch1|inst1~1clkctrl_outclk $end
$var wire 1 c! inst|inst11|inst30|DLatch0|inst1~1_combout $end
$var wire 1 d! inst|inst11|inst30|DLatch1|inst1~1_combout $end
$var wire 1 e! inst|inst10|Mux15~8_combout $end
$var wire 1 f! inst|inst11|inst2|inst~5_combout $end
$var wire 1 g! inst|inst11|inst2|inst~9_combout $end
$var wire 1 h! inst|inst11|inst25|DLatch0|inst1~1_combout $end
$var wire 1 i! inst|inst11|inst25|DLatch1|inst1~1_combout $end
$var wire 1 j! inst|inst11|inst26|DLatch0|inst1~1_combout $end
$var wire 1 k! inst|inst11|inst26|DLatch1|inst1~1_combout $end
$var wire 1 l! inst|inst11|inst2|inst~2_combout $end
$var wire 1 m! inst|inst11|inst2|DLatch0|inst1~1_combout $end
$var wire 1 n! inst|inst11|inst2|DLatch1|inst1~1_combout $end
$var wire 1 o! inst|inst14|inst22|DLatch1|inst1~1_combout $end
$var wire 1 p! inst|inst14|inst22|DLatch1|inst1~1clkctrl_outclk $end
$var wire 1 q! inst|inst11|inst22|DLatch0|inst1~1_combout $end
$var wire 1 r! inst|inst11|inst22|DLatch1|inst1~1_combout $end
$var wire 1 s! inst|inst11|inst2|inst~0_combout $end
$var wire 1 t! inst|inst11|inst23|DLatch0|inst1~1_combout $end
$var wire 1 u! inst|inst11|inst23|DLatch1|inst1~1_combout $end
$var wire 1 v! inst|inst11|inst24|DLatch0|inst1~1_combout $end
$var wire 1 w! inst|inst11|inst24|DLatch1|inst1~1_combout $end
$var wire 1 x! inst|inst11|inst2|inst~1_combout $end
$var wire 1 y! inst|inst11|inst2|inst~4_combout $end
$var wire 1 z! inst|inst4~2_combout $end
$var wire 1 {! inst|inst10|Mux15~15_combout $end
$var wire 1 |! inst|inst14|inst|DLatch1|inst1~1_combout $end
$var wire 1 }! inst|inst14|inst|DLatch1|inst1~1clkctrl_outclk $end
$var wire 1 ~! inst|inst13|inst|DLatch0|inst1~1_combout $end
$var wire 1 !" inst|inst13|inst|DLatch1|inst1~1_combout $end
$var wire 1 "" inst|inst10|Mux15~14_combout $end
$var wire 1 #" inst|inst14|inst35|DLatch1|inst1~1_combout $end
$var wire 1 $" inst|inst14|inst35|DLatch1|inst1~1clkctrl_outclk $end
$var wire 1 %" inst|inst13|inst35|DLatch0|inst1~1_combout $end
$var wire 1 &" inst|inst13|inst35|DLatch1|inst1~1_combout $end
$var wire 1 '" inst|inst13|inst2|inst~8_combout $end
$var wire 1 (" inst|inst13|inst31|DLatch0|inst1~1_combout $end
$var wire 1 )" inst|inst13|inst31|DLatch1|inst1~1_combout $end
$var wire 1 *" inst|inst13|inst32|DLatch0|inst1~1_combout $end
$var wire 1 +" inst|inst13|inst32|DLatch1|inst1~1_combout $end
$var wire 1 ," inst|inst13|inst2|inst~6_combout $end
$var wire 1 -" inst|inst14|inst29|DLatch1|inst1~1_combout $end
$var wire 1 ." inst|inst14|inst29|DLatch1|inst1~1clkctrl_outclk $end
$var wire 1 /" inst|inst13|inst29|DLatch0|inst1~1_combout $end
$var wire 1 0" inst|inst13|inst29|DLatch1|inst1~1_combout $end
$var wire 1 1" inst|inst13|inst2|inst~5_combout $end
$var wire 1 2" inst|inst13|inst2|inst~9_combout $end
$var wire 1 3" inst|inst13|inst2|DLatch0|inst1~1_combout $end
$var wire 1 4" inst|inst13|inst2|DLatch1|inst1~1_combout $end
$var wire 1 5" inst|inst13|inst22|DLatch0|inst1~1_combout $end
$var wire 1 6" inst|inst13|inst22|DLatch1|inst1~1_combout $end
$var wire 1 7" inst|inst13|inst2|inst~0_combout $end
$var wire 1 8" inst|inst10|Mux15~7_combout $end
$var wire 1 9" inst|inst14|inst28|DLatch1|inst1~1_combout $end
$var wire 1 :" inst|inst14|inst28|DLatch1|inst1~1clkctrl_outclk $end
$var wire 1 ;" inst|inst13|inst28|DLatch0|inst1~1_combout $end
$var wire 1 <" inst|inst13|inst28|DLatch1|inst1~1_combout $end
$var wire 1 =" inst|inst10|Mux15~6_combout $end
$var wire 1 >" inst|inst13|inst2|inst~3_combout $end
$var wire 1 ?" inst|inst13|inst23|DLatch0|inst1~1_combout $end
$var wire 1 @" inst|inst13|inst23|DLatch1|inst1~1_combout $end
$var wire 1 A" inst|inst13|inst24|DLatch0|inst1~1_combout $end
$var wire 1 B" inst|inst13|inst24|DLatch1|inst1~1_combout $end
$var wire 1 C" inst|inst13|inst2|inst~1_combout $end
$var wire 1 D" inst|inst13|inst2|inst~4_combout $end
$var wire 1 E" inst|inst6~2_combout $end
$var wire 1 F" inst|inst12|inst34|DLatch0|inst1~1_combout $end
$var wire 1 G" inst|inst12|inst34|DLatch1|inst1~1_combout $end
$var wire 1 H" inst|inst12|inst33|DLatch0|inst1~1_combout $end
$var wire 1 I" inst|inst12|inst33|DLatch1|inst1~1_combout $end
$var wire 1 J" inst|inst12|inst2|inst~7_combout $end
$var wire 1 K" inst|inst12|inst|DLatch0|inst1~1_combout $end
$var wire 1 L" inst|inst12|inst|DLatch1|inst1~1_combout $end
$var wire 1 M" inst|inst12|inst35|DLatch0|inst1~1_combout $end
$var wire 1 N" inst|inst12|inst35|DLatch1|inst1~1_combout $end
$var wire 1 O" inst|inst12|inst2|inst~8_combout $end
$var wire 1 P" inst|inst12|inst29|DLatch0|inst1~1_combout $end
$var wire 1 Q" inst|inst12|inst29|DLatch1|inst1~1_combout $end
$var wire 1 R" inst|inst12|inst30|DLatch0|inst1~1_combout $end
$var wire 1 S" inst|inst12|inst30|DLatch1|inst1~1_combout $end
$var wire 1 T" inst|inst12|inst2|inst~5_combout $end
$var wire 1 U" inst|inst12|inst2|inst~9_combout $end
$var wire 1 V" inst|inst5~2_combout $end
$var wire 1 W" inst1|Mux0~0_combout $end
$var wire 1 X" inst1|Mux1~0_combout $end
$var wire 1 Y" inst1|Mux2~0_combout $end
$var wire 1 Z" inst1|Mux3~0_combout $end
$var wire 1 [" inst1|Mux4~0_combout $end
$var wire 1 \" inst1|Mux5~0_combout $end
$var wire 1 ]" inst1|Mux6~0_combout $end
$var wire 1 ^" Arena_DataIn~combout [3] $end
$var wire 1 _" Arena_DataIn~combout [2] $end
$var wire 1 `" Arena_DataIn~combout [1] $end
$var wire 1 a" Arena_DataIn~combout [0] $end
$var wire 1 b" Arena_Address~combout [3] $end
$var wire 1 c" Arena_Address~combout [2] $end
$var wire 1 d" Arena_Address~combout [1] $end
$var wire 1 e" Arena_Address~combout [0] $end
$upscope $end
$upscope $end
$enddefinitions $end
#0
$dumpvars
b1011 !
0"
b11 #
1$
0%
0&
1'
1(
1)
0*
0+
0,
x-
0.
1/
x0
11
12
13
14
15
16
17
18
19
1:
x;
1<
1=
1>
1?
x@
1A
1B
xC
0D
xE
xF
xG
xH
xI
xJ
xK
xL
xM
xN
xO
xP
xQ
xR
xS
xT
xU
xV
xW
xX
xY
xZ
x[
x\
x]
x^
x_
x`
xa
xb
xc
xd
0e
0f
0g
0h
0i
0j
0k
0l
0m
0n
0o
0p
0q
0r
0s
1t
1u
1v
1w
1x
1y
1z
1{
1|
1}
1~
1!!
1"!
1#!
1$!
1%!
1&!
0'!
0(!
1)!
0*!
0+!
0,!
0-!
0.!
1/!
x0!
11!
02!
03!
04!
05!
16!
x7!
08!
09!
1:!
x;!
1<!
0=!
0>!
0?!
1@!
xA!
0B!
0C!
0D!
1E!
xF!
1G!
1H!
1I!
0J!
1K!
0L!
0M!
0N!
xO!
0P!
0Q!
0R!
xS!
xT!
0U!
0V!
0W!
0X!
xY!
0Z!
0[!
0\!
0]!
x^!
1_!
0`!
0a!
0b!
0c!
xd!
0e!
1f!
xg!
0h!
xi!
0j!
xk!
1l!
0m!
xn!
0o!
0p!
0q!
xr!
1s!
0t!
xu!
0v!
xw!
1x!
1y!
1z!
0{!
0|!
0}!
1~!
x!"
0""
0#"
0$"
1%"
x&"
1'"
1("
x)"
1*"
x+"
x,"
0-"
0."
1/"
x0"
11"
x2"
13"
x4"
15"
x6"
17"
08"
09"
0:"
1;"
x<"
0="
1>"
1?"
x@"
1A"
xB"
1C"
1D"
1E"
0F"
xG"
0H"
xI"
1J"
0K"
xL"
0M"
xN"
1O"
0P"
xQ"
0R"
xS"
1T"
xU"
1V"
0W"
1X"
1Y"
1Z"
0["
0\"
1]"
1a"
1`"
0_"
0^"
1e"
1d"
0c"
1b"
$end
#20000
1%
b11 !
b10 !
1,!
0e"
0b"
0-
0K!
1*!
1,"
1T!
1@
1;
x7"
xs!
x1!
x6
12"
1g!
1C
1U"
xD"
xy!
xH!
x:
#30000
b0 !
b1000 !
0d"
1b"
1-
18"
0*!
x>"
x>
x9
x4
17"
1s!
11!
16
#40000
1"
0%
b1010 !
b10 !
1(!
0,!
1d"
0b"
0-
xV"
xE"
xz!
xI!
08"
1*!
x]"
x\"
x["
xZ"
xY"
xX"
xW"
1>"
1>
19
14
x7"
xs!
x1!
x6
x+
x*
x)
x(
x'
x&
x,
#50000
b110 !
1c"
1-
12!
0*!
xl!
x<!
x<
x8
17"
1s!
11!
16
#60000
1%
b100 !
b0 !
1,!
0d"
0c"
0-
18!
1{!
02!
19!
xO"
x'"
1|!
xB
x5
1l!
1<!
08!
1<
18
0k!
1;!
1U
0O
09!
1}!
xU"
x2"
xC
xg!
1y!
1H!
1D"
1:
0L"
1!"
1d
0I
1O"
0'"
0B
15
1U"
02"
0C
1g!
1V"
0E"
0I!
1z!
1]"
1\"
1["
0Z"
0Y"
0X"
0W"
1+
1*
0)
0(
0'
0&
0,
#70000
b1000 !
b1010 !
b1110 !
1d"
1c"
1b"
1-
0{!
1U!
1'"
0|!
1B
xJ"
x_!
1V!
xA
x=
1W!
0}!
x2"
xC
xU"
xg!
0G"
0Y!
1b
1Y
xE"
xI!
xV"
xz!
1J"
1_!
0A
0=
x]"
x\"
x["
xZ"
xY"
xX"
xW"
1U"
1g!
0C
02"
1V"
1z!
0I!
0E"
x+
x*
x)
x(
x'
x&
x,
1]"
1\"
1["
0Z"
0Y"
0X"
0W"
1+
1*
0)
0(
0'
0&
0,
#80000
0"
0%
b1100 !
b1000 !
0(!
0,!
0d"
0c"
0-
1E"
0V!
1I!
18"
0U!
0W!
0\"
0["
1Z"
1Y"
1X"
x>"
x>
x9
x4
1A
1=
xD"
xH!
x:
xy!
1C
12"
0+
0*
1)
1(
1'
#90000
b1001 !
1e"
1-
08"
1e!
1>"
1>
19
14
xT"
x1"
xf!
x?
1D"
1H!
1:
1y!
xU"
x2"
xg!
xC
#100000
b1 !
1%
b101 !
1c"
0b"
1,!
0-
0e!
13!
1T"
11"
1f!
1?
xl!
x<!
x<
x8
1U"
12"
1g!
1C
xy!
xH!
xD"
x:
#110000
b1101 !
b1001 !
0c"
1b"
1-
1e!
03!
xT"
x1"
xf!
x?
1l!
1<!
1<
18
xU"
x2"
xg!
xC
1y!
1H!
1D"
1:
#120000
1"
0%
b1 !
b101 !
1(!
0,!
1c"
0b"
0-
xV"
xE"
xz!
xI!
0e!
13!
x]"
x\"
x["
xZ"
xY"
xX"
xW"
1T"
11"
1f!
1?
xl!
x<!
x<
x8
1U"
12"
1g!
1C
xy!
xH!
xD"
x:
x+
x*
x)
x(
x'
x&
x,
#130000
b100 !
0e"
1-
1B!
03!
xC"
xx!
xG!
x7
1l!
1<!
1<
18
#140000
b110 !
1%
b1110 !
b1010 !
1d"
0c"
1b"
1,!
0-
1`!
0B!
1C!
1D!
xT"
x1"
xf!
1a!
x?
1C"
1x!
1G!
0C!
17
1B"
0w!
1F!
0M
0D!
1b!
xU"
x2"
xg!
xC
1D"
1y!
1H!
1:
0S"
0d!
1^
1W
1T"
1f!
0?
01"
1U"
1g!
0C
02"
1V"
1z!
0I!
0E"
1]"
1\"
1["
0Z"
0Y"
0X"
0W"
1+
1*
0)
0(
0'
0&
0,
#150000
b1011 !
b11 !
1e"
0b"
1-
0`!
1=!
11"
0a!
1?
xC"
xx!
xG!
1>!
x7
1?!
0b!
12"
1C
xD"
xy!
xH!
x:
1@"
0u!
1A!
0L
xE"
xI!
xz!
xV"
0C"
1x!
0G!
17
x]"
x\"
x["
xZ"
xY"
xX"
xW"
0D"
1y!
0H!
1:
0E"
1z!
0I!
1V"
x+
x*
x)
x(
x'
x&
x,
1]"
1\"
1["
0Z"
0Y"
0X"
0W"
1+
1*
0)
0(
0'
0&
0,
