Arena_John/Lab 1/John Arena's Lab Report/Arena_Lab1Part3/simulation/qsim/Arena_Lab1Part3.msim.vcd
$comment
	File created using the following command:
		vcd file Arena_Lab1Part3.msim.vcd -direction
$end
$date
	Fri Feb 15 17:09:00 2019
$end
$version
	ModelSim Version 10.1d
$end
$timescale
	1ps
$end
$scope module Arena_muxLPM_vlg_vec_tst $end
$var reg 1 ! Arena_data0 $end
$var reg 1 " Arena_data1 $end
$var reg 1 # Arena_sel $end
$var wire 1 $ Arena_result $end
$var wire 1 % sampler $end
$scope module i1 $end
$var wire 1 & gnd $end
$var wire 1 ' vcc $end
$var wire 1 ( unknown $end
$var tri1 1 ) devclrn $end
$var tri1 1 * devpor $end
$var tri1 1 + devoe $end
$var wire 1 , Arena_sel~combout $end
$var wire 1 - Arena_data1~combout $end
$var wire 1 . Arena_data0~combout $end
$var wire 1 / LPM_MUX_component|auto_generated|result_node[0]~0_combout $end
$upscope $end
$upscope $end
$enddefinitions $end
#0
$dumpvars
0!
0"
0#
0$
x%
0&
1'
x(
1)
1*
1+
0,
0-
0.
0/
$end
#20000
1#
1,
0%
#40000
1!
0#
1.
0,
1%
1/
1$
#60000
1#
1,
0%
0/
0$
#80000
1"
0!
0#
1-
0.
0,
1%
#100000
1#
1,
0%
1/
1$
#120000
1!
0#
1.
0,
1%
#140000
1#
1,
0%
