Arena_John/Lab 4/Quartus Files/simulation/qsim/Add_Sub_Mul_Div_Accum_Lab4.msim.vcd
$comment
	File created using the following command:
		vcd file Add_Sub_Mul_Div_Accum_Lab4.msim.vcd -direction
$end
$date
	Sat Apr 27 19:59:25 2019
$end
$version
	ModelSim Version 10.1d
$end
$timescale
	1ps
$end
$scope module test_vlg_vec_tst $end
$var reg 16 ! Arena_16bitIN_A [15:0] $end
$var reg 16 " Arena_16bitIN_B [15:0] $end
$var wire 1 # Arena_32bitOUT [31] $end
$var wire 1 $ Arena_32bitOUT [30] $end
$var wire 1 % Arena_32bitOUT [29] $end
$var wire 1 & Arena_32bitOUT [28] $end
$var wire 1 ' Arena_32bitOUT [27] $end
$var wire 1 ( Arena_32bitOUT [26] $end
$var wire 1 ) Arena_32bitOUT [25] $end
$var wire 1 * Arena_32bitOUT [24] $end
$var wire 1 + Arena_32bitOUT [23] $end
$var wire 1 , Arena_32bitOUT [22] $end
$var wire 1 - Arena_32bitOUT [21] $end
$var wire 1 . Arena_32bitOUT [20] $end
$var wire 1 / Arena_32bitOUT [19] $end
$var wire 1 0 Arena_32bitOUT [18] $end
$var wire 1 1 Arena_32bitOUT [17] $end
$var wire 1 2 Arena_32bitOUT [16] $end
$var wire 1 3 Arena_32bitOUT [15] $end
$var wire 1 4 Arena_32bitOUT [14] $end
$var wire 1 5 Arena_32bitOUT [13] $end
$var wire 1 6 Arena_32bitOUT [12] $end
$var wire 1 7 Arena_32bitOUT [11] $end
$var wire 1 8 Arena_32bitOUT [10] $end
$var wire 1 9 Arena_32bitOUT [9] $end
$var wire 1 : Arena_32bitOUT [8] $end
$var wire 1 ; Arena_32bitOUT [7] $end
$var wire 1 < Arena_32bitOUT [6] $end
$var wire 1 = Arena_32bitOUT [5] $end
$var wire 1 > Arena_32bitOUT [4] $end
$var wire 1 ? Arena_32bitOUT [3] $end
$var wire 1 @ Arena_32bitOUT [2] $end
$var wire 1 A Arena_32bitOUT [1] $end
$var wire 1 B Arena_32bitOUT [0] $end
$var wire 1 C sampler $end
$scope module i1 $end
$var wire 1 D gnd $end
$var wire 1 E vcc $end
$var wire 1 F unknown $end
$var tri1 1 G devclrn $end
$var tri1 1 H devpor $end
$var tri1 1 I devoe $end
$var wire 1 J Arena_andGate~0_combout $end
$var wire 1 K nbitFA_L0:0:nbitFA0|Arena_16bitOUT_Sum_fa~0_combout $end
$var wire 1 L nbitFA_L1:0:nbitFA1|Arena_16bitOUT_Sum_fa~0_combout $end
$var wire 1 M nbitFA_L1:0:nbitFA1|Arena_16bitOUT_Sum_fa~1_combout $end
$var wire 1 N Arena_16bitIN_A~combout [15] $end
$var wire 1 O Arena_16bitIN_A~combout [14] $end
$var wire 1 P Arena_16bitIN_A~combout [13] $end
$var wire 1 Q Arena_16bitIN_A~combout [12] $end
$var wire 1 R Arena_16bitIN_A~combout [11] $end
$var wire 1 S Arena_16bitIN_A~combout [10] $end
$var wire 1 T Arena_16bitIN_A~combout [9] $end
$var wire 1 U Arena_16bitIN_A~combout [8] $end
$var wire 1 V Arena_16bitIN_A~combout [7] $end
$var wire 1 W Arena_16bitIN_A~combout [6] $end
$var wire 1 X Arena_16bitIN_A~combout [5] $end
$var wire 1 Y Arena_16bitIN_A~combout [4] $end
$var wire 1 Z Arena_16bitIN_A~combout [3] $end
$var wire 1 [ Arena_16bitIN_A~combout [2] $end
$var wire 1 \ Arena_16bitIN_A~combout [1] $end
$var wire 1 ] Arena_16bitIN_A~combout [0] $end
$var wire 1 ^ Arena_16bitIN_B~combout [15] $end
$var wire 1 _ Arena_16bitIN_B~combout [14] $end
$var wire 1 ` Arena_16bitIN_B~combout [13] $end
$var wire 1 a Arena_16bitIN_B~combout [12] $end
$var wire 1 b Arena_16bitIN_B~combout [11] $end
$var wire 1 c Arena_16bitIN_B~combout [10] $end
$var wire 1 d Arena_16bitIN_B~combout [9] $end
$var wire 1 e Arena_16bitIN_B~combout [8] $end
$var wire 1 f Arena_16bitIN_B~combout [7] $end
$var wire 1 g Arena_16bitIN_B~combout [6] $end
$var wire 1 h Arena_16bitIN_B~combout [5] $end
$var wire 1 i Arena_16bitIN_B~combout [4] $end
$var wire 1 j Arena_16bitIN_B~combout [3] $end
$var wire 1 k Arena_16bitIN_B~combout [2] $end
$var wire 1 l Arena_16bitIN_B~combout [1] $end
$var wire 1 m Arena_16bitIN_B~combout [0] $end
$upscope $end
$upscope $end
$enddefinitions $end
#0
$dumpvars
b0 !
b0 "
0B
0A
0@
0?
0>
0=
0<
0;
0:
09
08
07
06
05
04
03
02
01
00
0/
0.
0-
0,
0+
0*
0)
0(
0'
0&
0%
0$
0#
xC
0D
1E
xF
1G
1H
1I
0J
0K
0L
0M
0]
0\
0[
zZ
zY
zX
zW
zV
zU
zT
zS
zR
zQ
zP
zO
zN
0m
0l
0k
zj
zi
zh
zg
zf
ze
zd
zc
zb
za
z`
z_
z^
$end
#2000
b1 "
1m
0C
#4000
b11 "
b10 "
0m
1l
1C
#6000
b110 "
b111 "
1m
1k
0C
#8000
b1000000000000111 "
b1100000000000111 "
b1100010000000111 "
b1100010001000111 "
b1100010001010111 "
b1100010001011111 "
b1100010001011101 "
b1100010001011001 "
b1100010001011000 "
0m
0l
0k
1C
#10000
b1101010001011000 "
b1101010011011000 "
b1101010011111000 "
b101010011111000 "
b1010011111000 "
b1000011111000 "
b1000010111000 "
0C
#12000
b11000010111000 "
b11100010111000 "
b11100010101000 "
b10100010101000 "
b10100000101000 "
b10110000101000 "
1C
#14000
b10111000101000 "
b10111000101010 "
b10111000101110 "
b110111000101110 "
b110111000111110 "
b110111010111110 "
1l
1k
0C
#16000
b110111010011110 "
b1110111010011110 "
b1110111011011110 "
b1100111011011110 "
b1100011011011110 "
b1101011011011110 "
b1101001011011110 "
b1101000011011110 "
b1101000011001110 "
b1101000001001110 "
1C
#18000
b1 !
b1101000001000110 "
b1001000001000110 "
b1001000000000110 "
b1011000000000110 "
b1010000000000110 "
b1010010000000110 "
b1010011000000110 "
1]
0C
1M
1K
1@
1A
#20000
b1010011100000110 "
b1010011100000111 "
b1010011100000101 "
b1010011100000001 "
b10011100000001 "
b10111100000001 "
b10111110000001 "
b10111110001001 "
b10111111001001 "
1m
0l
0k
1C
0K
1J
0M
0A
1B
0@
#22000
b110111111001001 "
b111111111001001 "
b111111011001001 "
b111111001001001 "
b111111001000001 "
b111111000000001 "
0C
#24000
b111111000010001 "
b111111000010011 "
b1111111000010011 "
b1111111000011011 "
1l
1C
1K
1A
#26000
b1101111000011011 "
b1101101000011011 "
b1101101000011111 "
b1001101000011111 "
b1001101010011111 "
b1101010011111 "
1k
0C
1M
1@
#28000
b1101010111111 "
b1100010111111 "
b1000010111111 "
b10111111 "
b11111111 "
b11111101 "
b10000011111101 "
b10010011111101 "
b10010001111101 "
0l
1C
0K
0A
#30000
b10010001111100 "
b10010101111100 "
b10010101111000 "
b110010101111000 "
b110110101111000 "
b111110101111000 "
0m
0k
0C
0J
0M
0B
0@
#32000
b111110101101000 "
b111110101100000 "
b1111110101100000 "
b1111110101000000 "
b1111111101000000 "
b1111111100000000 "
b1111111100000010 "
b1111101100000010 "
b1111101110000010 "
b1111101110000011 "
b1111101010000011 "
b1111001010000011 "
1m
1l
1C
1K
1J
1A
1B
#34000
b1111001010001011 "
b111001010001011 "
b111000010001011 "
b111000000001011 "
b111000100001011 "
0C
#36000
b11 !
b10 !
b101000100001011 "
b101000100001111 "
b100000100001111 "
b100000100011111 "
b100000100111111 "
b100000100110111 "
b1100000100110111 "
b1100000110110111 "
1k
0]
1\
1C
0J
1L
1M
0B
1@
#38000
b1100000111110111 "
b1100000111110101 "
b1100000111110100 "
b1100001111110100 "
b1100001111100100 "
b1100001111101100 "
0m
0l
0C
0L
0K
0M
0A
0@
#40000
b1000001111101100 "
b1000001011101100 "
b1001001011101100 "
b1001011101100 "
b1001011101110 "
b1001011101111 "
b1000011101111 "
b1000011111111 "
b1000011110111 "
1m
1l
1C
1L
1K
1M
1A
1@
#42000
b1010011110111 "
b11010011110111 "
b11010011110011 "
b11010010110011 "
b11010110110011 "
b1011010110110011 "
b1011010110110010 "
b1011011110110010 "
b1011011110100010 "
0m
0k
0C
0K
0A
#44000
b1011011110000010 "
b1011011110000011 "
1m
1C
1K
1A
#46000
b1011011100000011 "
b1010011100000011 "
b1010001100000011 "
b1000001100000011 "
b1000001100000111 "
b1000001000000111 "
b1000000111 "
b111 "
1k
0C
#48000
b100000000111 "
b100100000000111 "
b100100000001111 "
b100100000001110 "
b100100010001110 "
b101100010001110 "
b101110010001110 "
b111110010001110 "
b111110010001010 "
b111110110001010 "
0m
0k
1C
0K
0A
#50000
b111110110001000 "
b111110111001000 "
b111110111101000 "
b111010111101000 "
b11010111101000 "
b11010111101001 "
b11000111101001 "
1m
0l
0C
0L
1K
0M
1A
0@
#52000
b11000111111001 "
b11000101111001 "
b11000001111001 "
b11000000111001 "
b111000000111001 "
b111000000111000 "
b111010000111000 "
0m
1C
0K
0A
#54000
b11 !
b111011000111000 "
b111011000110000 "
b111011000110100 "
b111011000010100 "
b111111000010100 "
b111111100010100 "
b111111101010100 "
1k
1]
0C
1M
1@
#56000
b101111101010100 "
b101111101010110 "
b101111101000110 "
b1111101000110 "
b1111101000111 "
b1101101000111 "
b1100101000111 "
b1100101000011 "
b1100001000011 "
b1100000000011 "
1m
1l
0k
1C
1L
1J
0M
1M
1B
0@
1@
#58000
b1001100000000011 "
b1001100010000011 "
b1001100010100011 "
b1001000010100011 "
b1011000010100011 "
b1011000010100001 "
b1011001010100001 "
b1011001010100101 "
b1011001110100101 "
b1011001111100101 "
0l
1k
0C
0L
1K
0M
1M
1A
0@
1@
#60000
b1010001111100101 "
b1010001111100100 "
b1010011111100100 "
b10011111100100 "
b10011101100100 "
b10011101000100 "
b11101000100 "
b11100000100 "
0m
1C
0K
0J
0A
0B
#62000
b11100000110 "
b10100000110 "
b10000000110 "
b10000000111 "
b111 "
1m
1l
0C
1L
1J
0M
1B
0@
#64000
b1111 "
b1000000000001111 "
b1000000001001111 "
b1000000101001111 "
b1000000101001110 "
0m
1C
1K
0J
1A
0B
#66000
b1000000101011110 "
b1000000101011010 "
b1000000111011010 "
b1010000111011010 "
b1010000111011000 "
b1010001111011000 "
b1010001111010000 "
b10001111010000 "
b10001110010000 "
0l
0k
0C
0L
0K
1M
0M
0A
1@
0@
#68000
b10101110010000 "
b10101010010000 "
b10101010010001 "
b10101010000001 "
b10101010000101 "
b10101000000101 "
b10100000000101 "
b10100000001101 "
b10100001001101 "
1m
1k
1C
1K
1J
1M
1A
1B
1@
#70000
b110100001001101 "
b111100001001101 "
b111100001101101 "
b111110001101101 "
b111010001101101 "
b111010101101101 "
b111010101111101 "
b111011101111101 "
0C
#72000
b111 !
b101 !
b100 !
b101011101111101 "
b1101011101111101 "
b1101011101111100 "
b1101011101111000 "
b1101011111111000 "
b1101011110111000 "
b1001011110111000 "
b1000011110111000 "
b1000011110011000 "
b1000011010011000 "
b1000011010001000 "
b1000010010001000 "
0m
0k
0]
0\
1[
1C
0K
0J
0M
0A
0B
0@
#74000
b1000010010000000 "
b1000000010000000 "
b10000000 "
b10000001 "
b1 "
b1000001 "
b1100001 "
b101100001 "
b101110001 "
b1101110001 "
1m
0C
1L
1M
1@
#76000
b1101110011 "
b10001101110011 "
b10001101110111 "
b11001101110111 "
b1011001101110111 "
b1011001100110111 "
b1011001100010111 "
b1011001100000111 "
1l
1k
1C
#78000
b1011001100001111 "
b1011001100001110 "
b1011001110001110 "
b1011001110001100 "
b1001001110001100 "
b1000001110001100 "
b1000001110101100 "
b1000001110111100 "
0m
0l
0C
0L
0M
0@
#80000
b1000011110111100 "
b11110111100 "
b11110111101 "
b1011110111101 "
b1011110011101 "
b1011110001101 "
1m
1C
1L
1M
1@
#82000
b101011110001101 "
b101011110001001 "
b101011110000001 "
b101011100000001 "
b101001100000001 "
b100001100000001 "
0k
0C
#84000
b100001000000001 "
b100001001000001 "
b100001001000011 "
b110001001000011 "
b1110001001000011 "
b1110001001010011 "
b1010001001010011 "
b1010001001011011 "
b1010001011011011 "
b1010011011011011 "
b1011011011011011 "
1l
1C
#86000
b1011111011011011 "
b1011111011011010 "
b1011111011011110 "
b1011111111011110 "
b1011111110011110 "
b1011111110011100 "
b11111110011100 "
b11111100011100 "
0m
0l
1k
0C
0L
0M
0@
#88000
b11111100111100 "
b1111100111100 "
b101111100111100 "
b101101100111100 "
b101001100111100 "
b1101001100111100 "
1C
#90000
b101 !
b1101001100101100 "
b1100001100101100 "
b1100001000101100 "
b1100001001101100 "
b1100001011101100 "
b1000001011101100 "
b1000011011101100 "
b11011101100 "
1]
0C
1M
1@
#92000
b10011101100 "
b10011101000 "
b10011001000 "
b1010011001000 "
b1010111001000 "
b1010110001000 "
b1010100001000 "
b101010100001000 "
b101000100001000 "
b1101000100001000 "
0k
1C
0M
0@
#94000
b1101000100000000 "
b1101000100000010 "
b1111000100000010 "
b1111100100000010 "
b1111100100010010 "
b1111101100010010 "
b1110101100010010 "
b1110101110010010 "
b1010101110010010 "
b10101110010010 "
1l
0C
1K
1A
#96000
b10101110110010 "
b10101010110010 "
b10101010111010 "
b10101010111000 "
b10001010111000 "
b10001010101000 "
b10000010101000 "
b11000010101000 "
b1011000010101000 "
0l
1C
0K
0A
#98000
b1011000010101001 "
b1011000010101101 "
b1011000011101101 "
b1011000011100101 "
b1011000011100111 "
b1011000011110111 "
b1011001011110111 "
b11001011110111 "
1m
1l
1k
0C
1L
1K
1J
1M
0M
1A
1B
1@
0@
#100000
b111001011110111 "
b111101011110111 "
b111101010110111 "
b111101010111111 "
b1111101010111111 "
1C
#102000
b1101101010111111 "
b1101101010011111 "
b1101101110011111 "
b1101101110011110 "
b1101101110011010 "
b1101101110001010 "
b1101001110001010 "
b1101001111001010 "
b1101001111000010 "
b101001111000010 "
0m
0k
0C
0L
0J
1M
0M
0B
1@
0@
#104000
b101011111000010 "
b101011101000010 "
b100011101000010 "
b100011101000000 "
b11101000000 "
b11101100000 "
b11101100100 "
b11101110100 "
b111101110100 "
0l
1k
1C
0K
1M
0A
1@
#106000
b111001110100 "
b111000110100 "
b111000111100 "
b1000111000111100 "
b1000101000111100 "
b1001101000111100 "
b1001101000111000 "
b1001001000111000 "
0k
0C
0M
0@
#108000
b111 !
b110 !
b1001000000111000 "
b1101000000111000 "
b1101000000011000 "
b1101000001011000 "
b1101000001010000 "
b101000001010000 "
b101100001010000 "
0]
1\
1C
#110000
b101100001010001 "
b101100011010001 "
b100100011010001 "
b100101011010001 "
b101011010001 "
b101011110001 "
b101010110001 "
b101010111001 "
b1000101010111001 "
b1000001010111001 "
1m
0C
1L
1K
1M
1A
1@
#112000
b1000001010101001 "
b1000011010101001 "
b1000011010101101 "
b1000011000101101 "
b1001011000101101 "
b1001010000101101 "
b1001010001101101 "
b1010001101101 "
b1110001101101 "
1k
1C
#114000
b11110001101101 "
b11110001101100 "
b11110001001100 "
b11110001011100 "
b11110001011000 "
b11110011011000 "
b11111011011000 "
b11011011011000 "
0m
0k
0C
0L
0K
0M
0A
0@
#116000
b11001011011000 "
b11001011011100 "
b11001001011100 "
b11000001011100 "
b11100001011100 "
1k
1C
#118000
b11100101011100 "
b111100101011100 "
b111100101010100 "
b110100101010100 "
b110100100010100 "
b1110100100010100 "
b1100100100010100 "
b1100100100010101 "
b1100100100110101 "
b1100100100110001 "
1m
0k
0C
1L
1K
1M
1A
1@
#120000
b1100100100100001 "
b1100110100100001 "
b1100010100100001 "
b1100010100101001 "
b1101010100101001 "
b1101010101101001 "
b1101010101101101 "
1k
1C
#122000
b1101010101101111 "
b1101011101101111 "
b1001011101101111 "
b1001011101001111 "
b1001001101001111 "
b1001001101000111 "
b1000001101000111 "
b1000001100000111 "
b1000001100000011 "
1l
0k
0C
0L
0M
0@
#124000
b1000001110000011 "
b1110000011 "
b10001110000011 "
b10101110000011 "
b10100110000011 "
b10100110100011 "
b10110110100011 "
b10110110101011 "
b11110110101011 "
b11110110101111 "
1k
1C
#126000
b111 !
b11110010101111 "
b11110010101110 "
b11110011101110 "
b11010011101110 "
b11010011001110 "
b11000011001110 "
b10000011001110 "
0m
1]
0C
1L
1M
0M
1@
0@
#128000
b10000001001110 "
b1010000001001110 "
b1010000001001010 "
b1010000101001010 "
b1010000101001011 "
b1010100101001011 "
b1010100101101011 "
b1010110101101011 "
1m
0k
1C
0L
0K
1J
1M
0M
0A
1B
1@
0@
#130000
b1010110101101001 "
b1010111101101001 "
b1010111111101001 "
b10111111101001 "
b10111011101001 "
b10111011101000 "
b10011011101000 "
b10001011101000 "
0m
0l
0C
0J
0B
#132000
b10001011111000 "
b1011111000 "
b1011110000 "
b1001011110000 "
b1001011110100 "
b1001011010100 "
b1001001011010100 "
b1001101011010100 "
1k
1C
1M
1@
#134000
b1101101011010100 "
b1101101011010110 "
b1101111011010110 "
b1111111011010110 "
b1110111011010110 "
b1110111011010010 "
b110111011010010 "
1l
0k
0C
1L
1K
0M
1M
1A
0@
1@
#136000
b110110011010010 "
b110110111010010 "
b110110111010000 "
b111110111010000 "
0l
1C
0L
0K
0M
0A
0@
#138000
b111100111010000 "
b101100111010000 "
b101100111010100 "
b101100011010100 "
b100100011010100 "
1k
0C
1M
1@
#140000
b100100010010100 "
b100100000010100 "
b100100000010101 "
b100100000000101 "
b100110000000101 "
b100110000000001 "
1m
0k
1C
1L
1K
1J
0M
1M
1A
1B
0@
1@
#142000
b100110000001001 "
b100010000001001 "
b10000001001 "
b11000001001 "
b11100001001 "
b1011100001001 "
b1011110001001 "
b1011110011001 "
b1001110011001 "
b1001110011101 "
1k
0C
0M
0@
#144000
b1000000000000111 !
b1100000000000111 !
b1100010000000111 !
b1100011000000111 !
b1100011010000111 !
b1100011011000111 !
b1100011011000110 !
b1001110111101 "
b1001001110111101 "
b1011001110111101 "
b1011001111111101 "
b1011001111111100 "
b1111001111111100 "
b1110001111111100 "
b1110001101111100 "
b1110001101101100 "
0m
0]
1C
0L
0K
0J
1M
0M
0A
0B
1@
0@
#146000
b1110001101101110 "
b1110001001101110 "
b1110011001101110 "
b1110011001101010 "
b1100011001101010 "
b1100011001101011 "
b1101011001101011 "
1m
1l
0k
0C
1K
1A
#148000
b101011001101011 "
b1011001101011 "
b1011011101011 "
b1011011101001 "
b1011111101001 "
b11011111101001 "
b11011111101000 "
b10011111101000 "
0m
0l
1C
0K
0A
#150000
b10001111101000 "
b10001111101100 "
b1010001111101100 "
b1010001101101100 "
b1000001101101100 "
b1000001101101101 "
b1001001101101101 "
1m
1k
0C
1L
1K
1M
1A
1@
#152000
b1001001101100101 "
b1001001101000101 "
b1001001101010101 "
b1001001001010101 "
b1001001010101 "
b11001001010101 "
1C
#153000
b1101011011000110 !
b1101011011100110 !
b1101011011100010 !
b1101011011100000 !
b1101011010100000 !
0\
0[
0C
0L
0K
0M
0A
0@
#154000
b11101001010101 "
b11101000010101 "
b111101000010101 "
b111101000010111 "
b111101000010011 "
b111101010010011 "
b111101010010010 "
b110101010010010 "
b110101010011010 "
b110101010111010 "
b110101110111010 "
0m
1l
0k
1C
#156000
b110100110111010 "
b110110110111010 "
b1110110110111010 "
b1100110110111010 "
b1100010110111010 "
b1000010110111010 "
b1000010110111110 "
b1000010100111110 "
b1000010100110110 "
b1000010000110110 "
1k
0C
#158000
b1000010000110100 "
b1000010000110101 "
b1000011000110101 "
b1000001000110101 "
b1000110101 "
b100001000110101 "
b100001000110001 "
b100001000111001 "
1m
0l
0k
1C
