Arena_John/Lab 4/Quartus Files/simulation/qsim/Add_Sub_Mul_Div_Accum_Lab4.msim.vcd
$comment
	File created using the following command:
		vcd file Add_Sub_Mul_Div_Accum_Lab4.msim.vcd -direction
$end
$date
	Wed Apr 10 21:17:16 2019
$end
$version
	ModelSim Version 10.1d
$end
$timescale
	1ps
$end
$scope module Arena_fullAdder_vlg_vec_tst $end
$var reg 1 ! Arena_A $end
$var reg 1 " Arena_B $end
$var reg 1 # Arena_Cin $end
$var wire 1 $ Arena_Cout $end
$var wire 1 % Arena_Sum $end
$var wire 1 & sampler $end
$scope module i1 $end
$var wire 1 ' gnd $end
$var wire 1 ( vcc $end
$var wire 1 ) unknown $end
$var tri1 1 * devclrn $end
$var tri1 1 + devpor $end
$var tri1 1 , devoe $end
$var wire 1 - Arena_A~combout $end
$var wire 1 . Arena_Cin~combout $end
$var wire 1 / Arena_B~combout $end
$var wire 1 0 Arena_Sum~0_combout $end
$var wire 1 1 Arena_Cout~0_combout $end
$upscope $end
$upscope $end
$enddefinitions $end
#0
$dumpvars
1!
1"
1#
1$
1%
x&
0'
1(
x)
1*
1+
1,
1-
1.
1/
10
11
$end
#20000
0#
0.
0&
00
0%
#40000
0"
1#
0/
1.
1&
#60000
0#
0.
0&
01
10
0$
1%
#80000
0!
1"
1#
0-
1/
1.
1&
11
00
1$
0%
#100000
0#
0.
0&
01
10
0$
1%
#120000
0"
1#
0/
1.
1&
#140000
0#
0.
0&
00
0%
