Arena_John/Lab 4/Quartus Files/simulation/qsim/Add_Sub_Mul_Div_Accum_Lab4.msim.vcd
$comment
	File created using the following command:
		vcd file Add_Sub_Mul_Div_Accum_Lab4.msim.vcd -direction
$end
$date
	Thu Apr 11 19:11:02 2019
$end
$version
	ModelSim Version 10.1d
$end
$timescale
	1ps
$end
$scope module Arena_D_FlipFlop_vlg_vec_tst $end
$var reg 1 ! Arena_clk $end
$var reg 1 " Arena_D $end
$var wire 1 # Arena_Q $end
$var wire 1 $ sampler $end
$scope module i1 $end
$var wire 1 % gnd $end
$var wire 1 & vcc $end
$var wire 1 ' unknown $end
$var tri1 1 ( devclrn $end
$var tri1 1 ) devpor $end
$var tri1 1 * devoe $end
$var wire 1 + Arena_D~combout $end
$var wire 1 , Arena_clk~combout $end
$var wire 1 - Arena_data~combout $end
$upscope $end
$upscope $end
$enddefinitions $end
#0
$dumpvars
1!
1"
1#
x$
0%
1&
x'
1(
1)
1*
1+
1,
1-
$end
#10000
0"
0+
0$
0-
0#
#20000
0!
0,
1$
#50000
1"
1+
0$
#60000
1!
1,
1$
1-
1#
#80000
0!
0,
0$
#90000
0"
0+
1$
#100000
1"
1+
0$
#110000
0"
0+
1$
#120000
1"
1+
0$
#130000
1!
0"
1,
0+
1$
0-
0#
#140000
0!
1"
0,
1+
0$
#150000
0"
0+
1$
