Arena_John/Lab 2/Quartus Files/simulation/qsim/Arena_16x4_SRAM.msim.vcd
$comment
	File created using the following command:
		vcd file Arena_16x4_SRAM.msim.vcd -direction
$end
$date
	Fri Mar 01 22:22:04 2019
$end
$version
	ModelSim Version 10.1d
$end
$timescale
	1ps
$end
$scope module Arena_4to16Decoder_vlg_vec_tst $end
$var reg 4 ! Arena_In [3:0] $end
$var wire 1 " Arena_Dec [15] $end
$var wire 1 # Arena_Dec [14] $end
$var wire 1 $ Arena_Dec [13] $end
$var wire 1 % Arena_Dec [12] $end
$var wire 1 & Arena_Dec [11] $end
$var wire 1 ' Arena_Dec [10] $end
$var wire 1 ( Arena_Dec [9] $end
$var wire 1 ) Arena_Dec [8] $end
$var wire 1 * Arena_Dec [7] $end
$var wire 1 + Arena_Dec [6] $end
$var wire 1 , Arena_Dec [5] $end
$var wire 1 - Arena_Dec [4] $end
$var wire 1 . Arena_Dec [3] $end
$var wire 1 / Arena_Dec [2] $end
$var wire 1 0 Arena_Dec [1] $end
$var wire 1 1 Arena_Dec [0] $end
$var wire 1 2 sampler $end
$scope module i1 $end
$var wire 1 3 gnd $end
$var wire 1 4 vcc $end
$var wire 1 5 unknown $end
$var tri1 1 6 devclrn $end
$var tri1 1 7 devpor $end
$var tri1 1 8 devoe $end
$var wire 1 9 Mux15~0_combout $end
$var wire 1 : Mux15~1_combout $end
$var wire 1 ; Mux15~2_combout $end
$var wire 1 < Mux15~3_combout $end
$var wire 1 = Mux15~4_combout $end
$var wire 1 > Mux15~5_combout $end
$var wire 1 ? Mux15~6_combout $end
$var wire 1 @ Mux15~7_combout $end
$var wire 1 A Mux15~8_combout $end
$var wire 1 B Mux15~9_combout $end
$var wire 1 C Mux15~10_combout $end
$var wire 1 D Mux15~11_combout $end
$var wire 1 E Mux15~12_combout $end
$var wire 1 F Mux15~13_combout $end
$var wire 1 G Mux15~14_combout $end
$var wire 1 H Mux15~15_combout $end
$var wire 1 I Arena_In~combout [3] $end
$var wire 1 J Arena_In~combout [2] $end
$var wire 1 K Arena_In~combout [1] $end
$var wire 1 L Arena_In~combout [0] $end
$upscope $end
$upscope $end
$enddefinitions $end
#0
$dumpvars
b0 !
11
00
0/
0.
0-
0,
0+
0*
0)
0(
0'
0&
0%
0$
0#
0"
x2
03
14
x5
16
17
18
19
0:
0;
0<
0=
0>
0?
0@
0A
0B
0C
0D
0E
0F
0G
0H
0L
0K
0J
0I
$end
#20000
b1 !
1L
02
1:
09
10
01
#40000
b11 !
b10 !
0L
1K
12
1;
0:
1/
00
#60000
b11 !
1L
02
1<
0;
1.
0/
#80000
b111 !
b101 !
b100 !
0L
0K
1J
12
1=
0<
1-
0.
#100000
b101 !
1L
02
1>
0=
1,
0-
#120000
b111 !
b110 !
0L
1K
12
1?
0>
1+
0,
#140000
b111 !
1L
02
1@
0?
1*
0+
#160000
b1111 !
b1011 !
b1001 !
b1000 !
0L
0K
0J
1I
12
1A
0@
1)
0*
#180000
b1001 !
1L
02
1B
0A
1(
0)
#200000
b1011 !
b1010 !
0L
1K
12
1C
0B
1'
0(
#220000
b1011 !
1L
02
1D
0C
1&
0'
#240000
b1111 !
b1101 !
b1100 !
0L
0K
1J
12
1E
0D
1%
0&
#260000
b1101 !
1L
02
1F
0E
1$
0%
#280000
b1111 !
b1110 !
0L
1K
12
1G
0F
1#
0$
#300000
b1111 !
1L
02
1H
0G
1"
0#
