Arena_John/Lab 2/Quartus Files/simulation/qsim/Arena_16x4_SRAM.msim.vcd
$comment
	File created using the following command:
		vcd file Arena_16x4_SRAM.msim.vcd -direction
$end
$date
	Sat Mar 02 16:37:29 2019
$end
$version
	ModelSim Version 10.1d
$end
$timescale
	1ps
$end
$scope module Arena_16x4_SRAM_vlg_vec_tst $end
$var reg 4 ! Arena_Address [3:0] $end
$var reg 1 " Arena_CS $end
$var reg 4 # Arena_DataIn [3:0] $end
$var reg 1 $ Arena_OE $end
$var reg 1 % Arena_WE $end
$var wire 1 & Arena_OUT [3] $end
$var wire 1 ' Arena_OUT [2] $end
$var wire 1 ( Arena_OUT [1] $end
$var wire 1 ) Arena_OUT [0] $end
$var wire 1 * sampler $end
$scope module i1 $end
$var wire 1 + gnd $end
$var wire 1 , vcc $end
$var wire 1 - unknown $end
$var tri1 1 . devclrn $end
$var tri1 1 / devpor $end
$var tri1 1 0 devoe $end
$upscope $end
$upscope $end
$enddefinitions $end
#0
$dumpvars
b1111 !
0"
b0 #
1$
0%
0)
0(
0'
0&
x*
0+
1,
x-
1.
1/
10
$end
#10000
b111 !
b101 !
0*
#20000
1%
b100 !
1*
#30000
b0 !
b1000 !
0*
#40000
1"
b1010 !
0%
b1011 !
b11 !
1*
#50000
b111 !
b101 !
0*
#60000
1%
b1101 !
b1111 !
1*
#70000
b1011 !
0*
#80000
b1000 #
b1100 #
b1110 #
b1111 #
0"
0%
1*
#90000
b1010 !
0*
#100000
b10 !
1%
b11 !
1*
#110000
b1 !
b1001 !
0*
#120000
b1101 !
1"
0%
b1100 !
1*
#130000
b100 !
b0 !
b1 !
0*
#140000
1%
1*
#150000
b11 !
b1011 !
b1111 !
b1110 !
0*
