Arena_John/Lab 2/Quartus Files/simulation/qsim/Arena_16x4_SRAM.msim.vcd
$comment
	File created using the following command:
		vcd file Arena_16x4_SRAM.msim.vcd -direction
$end
$date
	Sat Mar 02 18:56:33 2019
$end
$version
	ModelSim Version 10.1d
$end
$timescale
	1ps
$end
$scope module Arena_16x4_SRAM_vlg_vec_tst $end
$var reg 4 ! Arena_Address [3:0] $end
$var reg 1 " Arena_CS $end
$var reg 4 # Arena_DataIn [3:0] $end
$var reg 1 $ Arena_OE $end
$var reg 1 % Arena_WE $end
$var wire 1 & Arena_OUT [3] $end
$var wire 1 ' Arena_OUT [2] $end
$var wire 1 ( Arena_OUT [1] $end
$var wire 1 ) Arena_OUT [0] $end
$var wire 1 * sampler $end
$scope module i1 $end
$var wire 1 + gnd $end
$var wire 1 , vcc $end
$var wire 1 - unknown $end
$var tri1 1 . devclrn $end
$var tri1 1 / devpor $end
$var tri1 1 0 devoe $end
$var wire 1 1 inst14|inst2|inst~1_combout $end
$var wire 1 2 inst14|inst31|inst~0_combout $end
$var wire 1 3 inst13|inst2|inst~2_combout $end
$var wire 1 4 inst13|inst29|inst~0_combout $end
$var wire 1 5 inst12|inst2|inst~2_combout $end
$var wire 1 6 inst12|inst33|inst~0_combout $end
$var wire 1 7 inst11|inst2|inst~5_combout $end
$var wire 1 8 inst14|inst2|DLatch1|inst1~2_combout $end
$var wire 1 9 inst14|inst23|DLatch1|inst1~2_combout $end
$var wire 1 : inst14|inst24|DLatch1|inst1~2_combout $end
$var wire 1 ; inst14|inst31|DLatch1|inst1~2_combout $end
$var wire 1 < inst14|inst33|DLatch1|inst1~2_combout $end
$var wire 1 = inst13|inst2|DLatch1|inst1~1_combout $end
$var wire 1 > inst13|inst24|DLatch1|inst1~1_combout $end
$var wire 1 ? inst13|inst25|DLatch1|inst1~1_combout $end
$var wire 1 @ inst13|inst26|DLatch1|inst1~1_combout $end
$var wire 1 A inst13|inst27|DLatch1|inst1~1_combout $end
$var wire 1 B inst13|inst29|DLatch1|inst1~1_combout $end
$var wire 1 C inst13|inst32|DLatch1|inst1~1_combout $end
$var wire 1 D inst12|inst22|DLatch1|inst1~1_combout $end
$var wire 1 E inst12|inst24|DLatch1|inst1~1_combout $end
$var wire 1 F inst12|inst25|DLatch1|inst1~1_combout $end
$var wire 1 G inst12|inst26|DLatch1|inst1~1_combout $end
$var wire 1 H inst12|inst33|DLatch1|inst1~1_combout $end
$var wire 1 I inst12|inst35|DLatch1|inst1~1_combout $end
$var wire 1 J inst11|inst2|DLatch1|inst1~1_combout $end
$var wire 1 K inst11|inst23|DLatch1|inst1~1_combout $end
$var wire 1 L inst11|inst25|DLatch1|inst1~1_combout $end
$var wire 1 M inst11|inst31|DLatch1|inst1~1_combout $end
$var wire 1 N inst11|inst32|DLatch1|inst1~1_combout $end
$var wire 1 O inst11|inst33|DLatch1|inst1~1_combout $end
$var wire 1 P inst11|inst35|DLatch1|inst1~1_combout $end
$var wire 1 Q inst14|inst2|DLatch0|inst1~1_combout $end
$var wire 1 R inst14|inst23|DLatch0|inst1~1_combout $end
$var wire 1 S inst14|inst24|DLatch0|inst1~1_combout $end
$var wire 1 T inst14|inst31|DLatch0|inst1~1_combout $end
$var wire 1 U inst14|inst33|DLatch0|inst1~1_combout $end
$var wire 1 V inst13|inst2|DLatch0|inst1~1_combout $end
$var wire 1 W inst13|inst24|DLatch0|inst1~1_combout $end
$var wire 1 X inst13|inst25|DLatch0|inst1~1_combout $end
$var wire 1 Y inst13|inst26|DLatch0|inst1~1_combout $end
$var wire 1 Z inst13|inst27|DLatch0|inst1~1_combout $end
$var wire 1 [ inst13|inst29|DLatch0|inst1~1_combout $end
$var wire 1 \ inst13|inst32|DLatch0|inst1~1_combout $end
$var wire 1 ] inst12|inst22|DLatch0|inst1~1_combout $end
$var wire 1 ^ inst12|inst24|DLatch0|inst1~1_combout $end
$var wire 1 _ inst12|inst25|DLatch0|inst1~1_combout $end
$var wire 1 ` inst12|inst26|DLatch0|inst1~1_combout $end
$var wire 1 a inst12|inst33|DLatch0|inst1~1_combout $end
$var wire 1 b inst12|inst35|DLatch0|inst1~1_combout $end
$var wire 1 c inst11|inst2|DLatch0|inst1~1_combout $end
$var wire 1 d inst11|inst23|DLatch0|inst1~1_combout $end
$var wire 1 e inst11|inst25|DLatch0|inst1~1_combout $end
$var wire 1 f inst11|inst31|DLatch0|inst1~1_combout $end
$var wire 1 g inst11|inst32|DLatch0|inst1~1_combout $end
$var wire 1 h inst11|inst33|DLatch0|inst1~1_combout $end
$var wire 1 i inst11|inst35|DLatch0|inst1~1_combout $end
$var wire 1 j inst10|Mux15~11_combout $end
$var wire 1 k Arena_CS~combout $end
$var wire 1 l Arena_WE~combout $end
$var wire 1 m inst14|inst32|DLatch1|inst1~1_combout $end
$var wire 1 n inst14|inst32|DLatch1|inst1~1clkctrl_outclk $end
$var wire 1 o inst14|inst32|DLatch0|inst1~1_combout $end
$var wire 1 p inst14|inst32|DLatch1|inst1~2_combout $end
$var wire 1 q inst10|Mux15~8_combout $end
$var wire 1 r inst14|inst29|DLatch1|inst1~1_combout $end
$var wire 1 s inst14|inst29|DLatch1|inst1~1clkctrl_outclk $end
$var wire 1 t inst14|inst29|DLatch0|inst1~1_combout $end
$var wire 1 u inst14|inst29|DLatch1|inst1~2_combout $end
$var wire 1 v inst10|Mux15~9_combout $end
$var wire 1 w inst14|inst30|DLatch1|inst1~1_combout $end
$var wire 1 x inst14|inst30|DLatch1|inst1~1clkctrl_outclk $end
$var wire 1 y inst14|inst30|DLatch0|inst1~1_combout $end
$var wire 1 z inst14|inst30|DLatch1|inst1~2_combout $end
$var wire 1 { inst14|inst2|inst~5_combout $end
$var wire 1 | inst14|inst2|inst~6_combout $end
$var wire 1 } inst10|Mux15~12_combout $end
$var wire 1 ~ inst10|Mux15~13_combout $end
$var wire 1 !! inst14|inst34|DLatch1|inst1~1_combout $end
$var wire 1 "! inst14|inst34|DLatch1|inst1~1clkctrl_outclk $end
$var wire 1 #! inst14|inst34|DLatch0|inst1~1_combout $end
$var wire 1 $! inst14|inst34|DLatch1|inst1~2_combout $end
$var wire 1 %! inst14|inst2|inst~7_combout $end
$var wire 1 &! inst10|Mux15~15_combout $end
$var wire 1 '! inst10|Mux15~14_combout $end
$var wire 1 (! inst14|inst35|DLatch1|inst1~1_combout $end
$var wire 1 )! inst14|inst35|DLatch1|inst1~1clkctrl_outclk $end
$var wire 1 *! inst14|inst35|DLatch0|inst1~1_combout $end
$var wire 1 +! inst14|inst35|DLatch1|inst1~2_combout $end
$var wire 1 ,! inst14|inst|DLatch1|inst1~1_combout $end
$var wire 1 -! inst14|inst|DLatch1|inst1~1clkctrl_outclk $end
$var wire 1 .! inst14|inst|DLatch0|inst1~1_combout $end
$var wire 1 /! inst14|inst|DLatch1|inst1~2_combout $end
$var wire 1 0! inst14|inst2|inst~8_combout $end
$var wire 1 1! inst10|Mux15~1_combout $end
$var wire 1 2! inst10|Mux15~0_combout $end
$var wire 1 3! inst14|inst22|DLatch1|inst1~1_combout $end
$var wire 1 4! inst14|inst22|DLatch1|inst1~1clkctrl_outclk $end
$var wire 1 5! inst14|inst22|DLatch0|inst1~1_combout $end
$var wire 1 6! inst14|inst22|DLatch1|inst1~2_combout $end
$var wire 1 7! inst14|inst2|inst~0_combout $end
$var wire 1 8! inst10|Mux15~5_combout $end
$var wire 1 9! inst14|inst26|DLatch1|inst1~1_combout $end
$var wire 1 :! inst14|inst26|DLatch1|inst1~1clkctrl_outclk $end
$var wire 1 ;! inst14|inst26|DLatch0|inst1~1_combout $end
$var wire 1 <! inst14|inst26|DLatch1|inst1~2_combout $end
$var wire 1 =! inst10|Mux15~4_combout $end
$var wire 1 >! inst14|inst25|DLatch1|inst1~1_combout $end
$var wire 1 ?! inst14|inst25|DLatch1|inst1~1clkctrl_outclk $end
$var wire 1 @! inst14|inst25|DLatch0|inst1~1_combout $end
$var wire 1 A! inst14|inst25|DLatch1|inst1~2_combout $end
$var wire 1 B! inst14|inst2|inst~2_combout $end
$var wire 1 C! inst10|Mux15~6_combout $end
$var wire 1 D! inst14|inst27|DLatch1|inst1~1_combout $end
$var wire 1 E! inst14|inst27|DLatch1|inst1~1clkctrl_outclk $end
$var wire 1 F! inst14|inst27|DLatch0|inst1~1_combout $end
$var wire 1 G! inst14|inst27|DLatch1|inst1~2_combout $end
$var wire 1 H! inst10|Mux15~7_combout $end
$var wire 1 I! inst14|inst28|DLatch1|inst1~1_combout $end
$var wire 1 J! inst14|inst28|DLatch1|inst1~1clkctrl_outclk $end
$var wire 1 K! inst14|inst28|DLatch0|inst1~1_combout $end
$var wire 1 L! inst14|inst28|DLatch1|inst1~2_combout $end
$var wire 1 M! inst14|inst2|inst~3_combout $end
$var wire 1 N! inst14|inst2|inst~4_combout $end
$var wire 1 O! inst14|inst2|inst~9_combout $end
$var wire 1 P! Arena_OE~combout $end
$var wire 1 Q! inst14|inst2|inst~10_combout $end
$var wire 1 R! inst10|Mux15~10_combout $end
$var wire 1 S! inst14|inst31|DLatch1|inst1~1_combout $end
$var wire 1 T! inst14|inst31|DLatch1|inst1~1clkctrl_outclk $end
$var wire 1 U! inst13|inst31|DLatch0|inst1~1_combout $end
$var wire 1 V! inst13|inst31|DLatch1|inst1~1_combout $end
$var wire 1 W! inst13|inst2|inst~5_combout $end
$var wire 1 X! inst13|inst30|DLatch0|inst1~1_combout $end
$var wire 1 Y! inst13|inst30|DLatch1|inst1~1_combout $end
$var wire 1 Z! inst13|inst2|inst~6_combout $end
$var wire 1 [! inst14|inst33|DLatch1|inst1~1_combout $end
$var wire 1 \! inst14|inst33|DLatch1|inst1~1clkctrl_outclk $end
$var wire 1 ]! inst13|inst33|DLatch0|inst1~1_combout $end
$var wire 1 ^! inst13|inst33|DLatch1|inst1~1_combout $end
$var wire 1 _! inst13|inst34|DLatch0|inst1~1_combout $end
$var wire 1 `! inst13|inst34|DLatch1|inst1~1_combout $end
$var wire 1 a! inst13|inst2|inst~7_combout $end
$var wire 1 b! inst13|inst35|DLatch0|inst1~1_combout $end
$var wire 1 c! inst13|inst35|DLatch1|inst1~1_combout $end
$var wire 1 d! inst13|inst|DLatch0|inst1~1_combout $end
$var wire 1 e! inst13|inst|DLatch1|inst1~1_combout $end
$var wire 1 f! inst13|inst2|inst~8_combout $end
$var wire 1 g! inst13|inst22|DLatch0|inst1~1_combout $end
$var wire 1 h! inst13|inst22|DLatch1|inst1~1_combout $end
$var wire 1 i! inst13|inst2|inst~0_combout $end
$var wire 1 j! inst10|Mux15~2_combout $end
$var wire 1 k! inst14|inst23|DLatch1|inst1~1_combout $end
$var wire 1 l! inst14|inst23|DLatch1|inst1~1clkctrl_outclk $end
$var wire 1 m! inst13|inst23|DLatch0|inst1~1_combout $end
$var wire 1 n! inst13|inst23|DLatch1|inst1~1_combout $end
$var wire 1 o! inst10|Mux15~3_combout $end
$var wire 1 p! inst13|inst2|inst~1_combout $end
$var wire 1 q! inst13|inst28|DLatch0|inst1~1_combout $end
$var wire 1 r! inst13|inst28|DLatch1|inst1~1_combout $end
$var wire 1 s! inst13|inst2|inst~3_combout $end
$var wire 1 t! inst13|inst2|inst~4_combout $end
$var wire 1 u! inst13|inst2|inst~9_combout $end
$var wire 1 v! inst12|inst31|DLatch0|inst1~1_combout $end
$var wire 1 w! inst12|inst31|DLatch1|inst1~1_combout $end
$var wire 1 x! inst12|inst32|DLatch0|inst1~1_combout $end
$var wire 1 y! inst12|inst32|DLatch1|inst1~1_combout $end
$var wire 1 z! inst12|inst2|inst~6_combout $end
$var wire 1 {! inst12|inst|DLatch0|inst1~1_combout $end
$var wire 1 |! inst12|inst|DLatch1|inst1~1_combout $end
$var wire 1 }! inst12|inst2|inst~7_combout $end
$var wire 1 ~! inst12|inst34|DLatch0|inst1~1_combout $end
$var wire 1 !" inst12|inst34|DLatch1|inst1~1_combout $end
$var wire 1 "" inst12|inst2|inst~8_combout $end
$var wire 1 #" inst12|inst23|DLatch0|inst1~1_combout $end
$var wire 1 $" inst12|inst23|DLatch1|inst1~1_combout $end
$var wire 1 %" inst12|inst2|inst~1_combout $end
$var wire 1 &" inst14|inst2|DLatch1|inst1~1_combout $end
$var wire 1 '" inst14|inst2|DLatch1|inst1~1clkctrl_outclk $end
$var wire 1 (" inst12|inst2|DLatch0|inst1~1_combout $end
$var wire 1 )" inst12|inst2|DLatch1|inst1~1_combout $end
$var wire 1 *" inst12|inst2|inst~0_combout $end
$var wire 1 +" inst12|inst27|DLatch0|inst1~1_combout $end
$var wire 1 ," inst12|inst27|DLatch1|inst1~1_combout $end
$var wire 1 -" inst12|inst28|DLatch0|inst1~1_combout $end
$var wire 1 ." inst12|inst28|DLatch1|inst1~1_combout $end
$var wire 1 /" inst12|inst2|inst~3_combout $end
$var wire 1 0" inst12|inst2|inst~4_combout $end
$var wire 1 1" inst12|inst29|DLatch0|inst1~1_combout $end
$var wire 1 2" inst12|inst29|DLatch1|inst1~1_combout $end
$var wire 1 3" inst12|inst30|DLatch0|inst1~1_combout $end
$var wire 1 4" inst12|inst30|DLatch1|inst1~1_combout $end
$var wire 1 5" inst12|inst2|inst~5_combout $end
$var wire 1 6" inst12|inst2|inst~9_combout $end
$var wire 1 7" inst11|inst26|DLatch0|inst1~1_combout $end
$var wire 1 8" inst11|inst26|DLatch1|inst1~1_combout $end
$var wire 1 9" inst11|inst2|inst~2_combout $end
$var wire 1 :" inst14|inst24|DLatch1|inst1~1_combout $end
$var wire 1 ;" inst14|inst24|DLatch1|inst1~1clkctrl_outclk $end
$var wire 1 <" inst11|inst24|DLatch0|inst1~1_combout $end
$var wire 1 =" inst11|inst24|DLatch1|inst1~1_combout $end
$var wire 1 >" inst11|inst24|inst~0_combout $end
$var wire 1 ?" inst11|inst22|DLatch0|inst1~1_combout $end
$var wire 1 @" inst11|inst22|DLatch1|inst1~1_combout $end
$var wire 1 A" inst11|inst2|inst~0_combout $end
$var wire 1 B" inst11|inst2|inst~1_combout $end
$var wire 1 C" inst11|inst34|DLatch0|inst1~1_combout $end
$var wire 1 D" inst11|inst34|DLatch1|inst1~1_combout $end
$var wire 1 E" inst11|inst2|inst~6_combout $end
$var wire 1 F" inst11|inst|DLatch0|inst1~1_combout $end
$var wire 1 G" inst11|inst|DLatch1|inst1~1_combout $end
$var wire 1 H" inst11|inst2|inst~7_combout $end
$var wire 1 I" inst11|inst30|DLatch0|inst1~1_combout $end
$var wire 1 J" inst11|inst30|DLatch1|inst1~1_combout $end
$var wire 1 K" inst11|inst29|DLatch0|inst1~1_combout $end
$var wire 1 L" inst11|inst29|DLatch1|inst1~1_combout $end
$var wire 1 M" inst11|inst2|inst~4_combout $end
$var wire 1 N" inst11|inst2|inst~8_combout $end
$var wire 1 O" inst11|inst28|DLatch0|inst1~1_combout $end
$var wire 1 P" inst11|inst28|DLatch1|inst1~1_combout $end
$var wire 1 Q" inst11|inst27|DLatch0|inst1~1_combout $end
$var wire 1 R" inst11|inst27|DLatch1|inst1~1_combout $end
$var wire 1 S" inst11|inst2|inst~3_combout $end
$var wire 1 T" inst11|inst2|inst~9_combout $end
$var wire 1 U" Arena_DataIn~combout [3] $end
$var wire 1 V" Arena_DataIn~combout [2] $end
$var wire 1 W" Arena_DataIn~combout [1] $end
$var wire 1 X" Arena_DataIn~combout [0] $end
$var wire 1 Y" Arena_Address~combout [3] $end
$var wire 1 Z" Arena_Address~combout [2] $end
$var wire 1 [" Arena_Address~combout [1] $end
$var wire 1 \" Arena_Address~combout [0] $end
$upscope $end
$upscope $end
$enddefinitions $end
#0
$dumpvars
b1111 !
0"
b0 #
1$
0%
z)
z(
z'
z&
x*
0+
1,
x-
1.
1/
10
11
12
13
14
15
16
17
x8
x9
x:
x;
x<
x=
x>
x?
x@
xA
xB
xC
xD
xE
xF
xG
xH
xI
xJ
xK
xL
xM
xN
xO
xP
1Q
1R
1S
1T
1U
1V
1W
1X
1Y
1Z
1[
1\
1]
1^
1_
1`
1a
1b
1c
1d
1e
1f
1g
1h
1i
0j
0k
0l
0m
0n
1o
xp
0q
0r
0s
1t
xu
0v
0w
0x
1y
xz
1{
1|
0}
0~
0!!
0"!
1#!
x$!
1%!
0&!
1'!
0(!
0)!
1*!
x+!
0,!
0-!
1.!
x/!
x0!
01!
02!
03!
04!
15!
x6!
17!
08!
09!
0:!
1;!
x<!
0=!
0>!
0?!
1@!
xA!
1B!
0C!
0D!
0E!
1F!
xG!
0H!
0I!
0J!
1K!
xL!
1M!
1N!
xO!
1P!
0Q!
0R!
0S!
0T!
1U!
xV!
1W!
1X!
xY!
1Z!
0[!
0\!
1]!
x^!
1_!
x`!
1a!
1b!
xc!
1d!
xe!
xf!
1g!
xh!
1i!
0j!
0k!
0l!
1m!
xn!
0o!
1p!
1q!
xr!
1s!
1t!
xu!
1v!
xw!
1x!
xy!
1z!
1{!
x|!
x}!
1~!
x!"
x""
1#"
x$"
1%"
0&"
0'"
1("
x)"
1*"
1+"
x,"
1-"
x."
1/"
10"
11"
x2"
13"
x4"
15"
x6"
17"
x8"
19"
0:"
0;"
1<"
x="
1>"
1?"
x@"
1A"
1B"
1C"
xD"
1E"
1F"
xG"
xH"
1I"
xJ"
1K"
xL"
1M"
xN"
1O"
xP"
1Q"
xR"
1S"
xT"
0X"
0W"
0V"
0U"
1\"
1["
1Z"
1Y"
$end
#10000
b111 !
b101 !
0["
0Y"
0*
1=!
0'!
x9"
xB!
x5
x3
1H"
1}!
1f!
10!
xN!
x0"
xt!
1N"
1""
1u!
1O!
xO!
xu!
#20000
1%
b100 !
1l
0\"
1*
1o!
0=!
x>"
x%"
xp!
x1
19"
1B!
15
13
xB"
1T"
xT"
#30000
b0 !
b1000 !
0Z"
1Y"
0*
0o!
1H!
1>"
1%"
1p!
11
xS"
x/"
xs!
xM!
1B"
#40000
1"
b1010 !
0%
b1011 !
b11 !
1k
1\"
1["
0Y"
0l
1*
1Q!
1j!
0H!
xB"
x%"
xp!
x1
1S"
1/"
1s!
1M!
x)
x(
x'
x&
#50000
b111 !
b101 !
0["
1Z"
0*
0j!
1=!
1B"
1%"
1p!
11
x9"
xB!
x5
x3
#60000
1%
b1101 !
b1111 !
1l
1["
1Y"
1*
1>!
0=!
1'!
1?!
19"
1B!
0>!
15
13
xH"
x}!
xf!
x0!
1(!
1A!
1L
1F
1?
1)!
0?!
1T"
1N!
10"
1t!
xN"
x""
1c!
1+!
1P
1I
xT"
0f!
00!
0H"
0}!
1)
0u!
0O!
0N"
0""
x)
0T"
06"
0'
0&
0)
0(
#70000
b1011 !
0Z"
0*
1R!
0'!
xz!
xW!
1S!
x7
x2
1H"
1}!
1f!
10!
0(!
0)!
1T!
xZ!
xN"
x|
1""
1u!
1O!
1w!
1V!
1M
1;
xu!
xT"
xO!
x6"
0z!
0W!
07
02
1'
1&
06"
0Z!
0N"
0|
x'
x)
x&
x(
0u!
0T"
0O!
0(
0'
0)
0&
#80000
b1000 #
b1100 #
b1110 #
b1111 #
0"
0%
1X"
1W"
1V"
1U"
0k
0l
1*
0Q"
0O"
0K"
0I"
0F"
0C"
0?"
0<"
07"
0i
0h
0g
0e
0d
0c
03"
01"
0-"
0+"
0("
0#"
0~!
0{!
0x!
0b
0a
0`
0_
0^
0]
0q!
0m!
0g!
0d!
0b!
0_!
0]!
0X!
0\
0[
0Z
0Y
0X
0W
0V
0K!
0F!
0@!
0;!
05!
0.!
0*!
0#!
0y
0t
0o
0U
0S
0R
0Q
0S!
0Q!
0T!
0v!
0U!
0f
0T
z)
z(
z'
z&
#90000
b1010 !
0\"
0*
0R!
1v
1z!
1W!
17
12
xM"
x5"
x{
x6"
xZ!
xN"
x|
xu!
xT"
xO!
#100000
b10 !
1%
b11 !
1\"
0Y"
1l
1*
1j!
0v
xB"
x%"
xp!
x1
1M"
15"
1Z!
1{
x0"
xt!
xN!
1N"
16"
1u!
1|
x6"
xu!
#110000
b1 !
b1001 !
0["
1Y"
0*
0j!
1q
1B"
1%"
1p!
11
xM"
x5"
x{
x4
1T"
10"
1t!
1N!
xN"
x|
xZ!
xT"
#120000
b1101 !
1"
0%
b1100 !
0\"
1Z"
1k
0l
1*
0q
1j
1Q!
1M"
15"
1{
14
xz!
xW!
x7
x)
x(
x'
x&
#130000
b100 !
b0 !
b1 !
1\"
0Z"
0Y"
0*
12!
0j
xA"
x*"
xi!
x7!
1z!
1W!
1|
17
xB"
x0"
xt!
xN!
16"
1Z!
1O!
1N"
x6"
xO!
1(
1&
x(
x&
#140000
1%
1l
1*
1&"
1'"
0)"
0J
0=
08
1*"
1A"
1i!
17!
10"
1B"
1t!
1N!
16"
1T"
1u!
1O!
1(
1)
1'
1&
#150000
b11 !
b1011 !
b1111 !
b1110 !
0\"
1["
1Z"
1Y"
0*
02!
1~
0&"
xE"
x""
xa!
x%!
1!!
1"!
0'"
xN"
x6"
xu!
xO!
0D"
0!"
0`!
0$!
xT"
1E"
1""
1a!
1%!
x(
x'
x&
1N"
16"
1u!
1O!
x)
1T"
1(
1'
1&
1)
