Arena_John/Lab 1/John Arenas Quartus Files/Arena_Lab1_FullAdder/simulation/qsim/Arena_Lab1_FullAdder.msim.vcd
$comment
	File created using the following command:
		vcd file Arena_Lab1_FullAdder.msim.vcd -direction
$end
$date
	Mon Feb 25 12:35:08 2019
$end
$version
	ModelSim Version 10.1d
$end
$timescale
	1ps
$end
$scope module Arena_FullAdder_vlg_vec_tst $end
$var reg 1 ! Arena_CarryIn1 $end
$var reg 1 " Arena_X1 $end
$var reg 1 # Arena_Y1 $end
$var wire 1 $ Arena_CarryOut $end
$var wire 1 % Arena_Sum $end
$var wire 1 & sampler $end
$scope module i1 $end
$var wire 1 ' gnd $end
$var wire 1 ( vcc $end
$var wire 1 ) unknown $end
$var tri1 1 * devclrn $end
$var tri1 1 + devpor $end
$var tri1 1 , devoe $end
$var wire 1 - Arena_Y1~combout $end
$var wire 1 . Arena_X1~combout $end
$var wire 1 / Arena_CarryIn1~combout $end
$var wire 1 0 HA2|Arena_Sum~0_combout $end
$var wire 1 1 Arena_CarryOut~0_combout $end
$upscope $end
$upscope $end
$enddefinitions $end
#0
$dumpvars
0!
0"
0#
0$
0%
x&
0'
1(
x)
1*
1+
1,
0-
0.
0/
00
01
$end
#20000
1!
1/
0&
10
1%
#40000
1#
0!
1-
0/
1&
#60000
1!
1/
0&
11
00
1$
0%
#80000
1"
0#
0!
1.
0-
0/
1&
01
10
0$
1%
#100000
1!
1/
0&
11
00
1$
0%
#120000
1#
0!
1-
0/
1&
#140000
1!
1/
0&
10
1%
