Arena_John/Lab 1/John Arenas Quartus Files/Arena_3to8Decoder/simulation/qsim/Arena_3to8Decoder.msim.vcd
$comment
	File created using the following command:
		vcd file Arena_3to8Decoder.msim.vcd -direction
$end
$date
	Mon Feb 25 13:03:49 2019
$end
$version
	ModelSim Version 10.1d
$end
$timescale
	1ps
$end
$scope module Arena_3to8Decoder_vlg_vec_tst $end
$var reg 1 ! Arena_A $end
$var reg 1 " Arena_B $end
$var reg 1 # Arena_C $end
$var wire 1 $ Arena_F0 $end
$var wire 1 % Arena_F1 $end
$var wire 1 & Arena_F2 $end
$var wire 1 ' Arena_F3 $end
$var wire 1 ( Arena_F4 $end
$var wire 1 ) Arena_F5 $end
$var wire 1 * Arena_F6 $end
$var wire 1 + Arena_F7 $end
$var wire 1 , sampler $end
$scope module i1 $end
$var wire 1 - gnd $end
$var wire 1 . vcc $end
$var wire 1 / unknown $end
$var tri1 1 0 devclrn $end
$var tri1 1 1 devpor $end
$var tri1 1 2 devoe $end
$var wire 1 3 Arena_A~combout $end
$var wire 1 4 Arena_B~combout $end
$var wire 1 5 comb~0_combout $end
$var wire 1 6 process_0~1_combout $end
$var wire 1 7 process_0~0_combout $end
$var wire 1 8 Arena_F1$latch~combout $end
$var wire 1 9 Arena_C~combout $end
$var wire 1 : Arena_F2~0_combout $end
$var wire 1 ; process_0~2_combout $end
$var wire 1 < Arena_F2$latch~combout $end
$var wire 1 = Arena_F3~0_combout $end
$var wire 1 > process_0~3_combout $end
$var wire 1 ? Arena_F3$latch~combout $end
$var wire 1 @ process_0~4_combout $end
$var wire 1 A Arena_F4$latch~combout $end
$var wire 1 B Arena_F5~0_combout $end
$var wire 1 C process_0~5_combout $end
$var wire 1 D Arena_F5$latch~combout $end
$var wire 1 E Arena_F6~0_combout $end
$var wire 1 F process_0~6_combout $end
$var wire 1 G Arena_F6$latch~combout $end
$var wire 1 H Arena_F7~0_combout $end
$var wire 1 I process_0~7_combout $end
$var wire 1 J Arena_F7$latch~combout $end
$upscope $end
$upscope $end
$enddefinitions $end
#0
$dumpvars
0!
0"
0#
1$
0%
0&
0'
0(
0)
0*
0+
x,
0-
1.
x/
10
11
12
03
04
05
06
07
08
09
1:
0;
0<
1=
0>
0?
1@
0A
1B
0C
0D
0E
0F
0G
0H
0I
0J
$end
#20000
1#
19
0,
1H
1E
0B
0@
0=
0:
16
15
18
1%
#40000
1"
0#
14
09
1,
1;
17
06
1:
1<
1&
#60000
1#
19
0,
1>
1=
0;
0:
1?
1'
#80000
1!
0"
0#
13
04
09
1,
0>
0=
1@
1A
1(
#100000
1#
19
0,
1C
1B
0@
1D
1)
#120000
1"
0#
14
09
1,
1F
0E
0C
0B
1G
1*
#140000
1#
19
0,
1I
0H
0F
1E
1J
1+
