Arena_John/Lab 1/John Arena's Lab Report/Arena_3to8Decoder/simulation/qsim/Arena_3to8Decoder.msim.vcd
$comment
	File created using the following command:
		vcd file Arena_3to8Decoder.msim.vcd -direction
$end
$date
	Sat Feb 16 20:37:40 2019
$end
$version
	ModelSim Version 10.1d
$end
$timescale
	1ps
$end
$scope module Arena_3to8Decoder_vlg_vec_tst $end
$var reg 1 ! Arena_A $end
$var reg 1 " Arena_B $end
$var reg 1 # Arena_C $end
$var wire 1 $ Arena_F0 $end
$var wire 1 % Arena_F1 $end
$var wire 1 & Arena_F2 $end
$var wire 1 ' Arena_F3 $end
$var wire 1 ( Arena_F4 $end
$var wire 1 ) Arena_F5 $end
$var wire 1 * Arena_F6 $end
$var wire 1 + Arena_F7 $end
$var wire 1 , sampler $end
$scope module i1 $end
$var wire 1 - gnd $end
$var wire 1 . vcc $end
$var wire 1 / unknown $end
$var tri1 1 0 devclrn $end
$var tri1 1 1 devpor $end
$var tri1 1 2 devoe $end
$var wire 1 3 Arena_C~combout $end
$var wire 1 4 Arena_B~combout $end
$var wire 1 5 Arena_A~combout $end
$var wire 1 6 Arena_F0~0_combout $end
$var wire 1 7 Arena_F1~0_combout $end
$var wire 1 8 Arena_F2~0_combout $end
$var wire 1 9 Arena_F3~0_combout $end
$var wire 1 : Arena_F4~0_combout $end
$var wire 1 ; Arena_F5~0_combout $end
$var wire 1 < Arena_F6~0_combout $end
$var wire 1 = Arena_F7~0_combout $end
$upscope $end
$upscope $end
$enddefinitions $end
#0
$dumpvars
0!
0"
0#
1$
0%
0&
0'
0(
0)
0*
0+
x,
0-
1.
x/
10
11
12
03
04
05
06
07
08
09
0:
0;
0<
0=
$end
#20000
1#
13
0,
17
16
1%
0$
#40000
1"
0#
14
03
1,
18
07
1&
0%
#60000
1#
13
0,
19
08
1'
0&
#80000
1!
0"
0#
15
04
03
1,
1:
09
1(
0'
#100000
1#
13
0,
1;
0:
1)
0(
#120000
1"
0#
14
03
1,
1<
0;
1*
0)
#140000
1#
13
0,
1=
0<
1+
0*
